{
  "transactionId": "43a34740-f543-457a-dddd-21bd9598a922",
  "tenantId": "aaaa",
  "applicationId": "bbbb",
  "productId": "IdentityAssurance",
  "configId": "cccc",
  "correlationId": "70f53cb4-aaaa-4611-8150-21bd9598a922",
  "consumerId": "dddd",
  "results": [
    {
      "address": {
        "addressType": "current",
        "countryCode": "UK",
        "addressLine1": "346",
        "addressLine2": "",
        "city": "",
        "region": "",
        "postalCode": "cb62ag",
        "postalIdentifier": "",
        "county": "",
        "isPrimary": true,
        "yearsAtAddress": null
      },
      "addressInsight": {
        "characteristics": [
          {
            "key": "nationalIdAssociation0to7days",
            "value": "Unable to calculate",
            "text": "N/A"
          },
          {
            "key": "addressValid",
            "value": "Unable to calculate",
            "text": "N/A"
          },
          {
            "key": "inquiries0to7days",
            "value": "Unable to calculate",
            "text": "N/A"
          },
          {
            "key": "residential",
            "value": "Unable to calculate",
            "text": "N/A"
          },
          {
            "key": "fullNameAssociation90days",
            "value": "Unable to calculate",
            "text": "N/A"
          },
          {
            "key": "fullNameAssociation0to7days",
            "value": "Unable to calculate",
            "text": "N/A"
          },
          {
            "key": "knownFraudFlag",
            "value": "Unable to calculate",
            "text": "N/A"
          },
          {
            "key": "inquiries90days",
            "value": "Unable to calculate",
            "text": "N/A"
          },
          {
            "key": "otherType",
            "value": "Unable to calculate",
            "text": "N/A"
          },
          {
            "key": "nationalIdAssociation90days",
            "value": "Unable to calculate",
            "text": "N/A"
          }
        ],
        "additionalOutputs": [
          {
            "key": "AI_OV_S008",
            "value": "8"
          },
          {
            "key": "AI_OV_S009",
            "value": "0"
          },
          {
            "key": "AI_OV_S010",
            "value": "-89"
          },
          {
            "key": "AI_OV_S011",
            "value": "-89"
          },
          {
            "key": "AI_OV_S012",
            "value": "7"
          },
          {
            "key": "AI_OV_S013",
            "value": "0"
          },
          {
            "key": "AI_OV_S014",
            "value": "-89"
          },
          {
            "key": "AI_OV_S015",
            "value": "-89"
          },
          {
            "key": "AI_OV_S016",
            "value": "-89"
          },
          {
            "key": "AI_OV_S017",
            "value": "-89"
          },
          {
            "key": "AI_OV_S018",
            "value": "-89"
          },
          {
            "key": "AI_OV_S019",
            "value": "-89"
          },
          {
            "key": "AI_OV_S020",
            "value": "-89"
          },
          {
            "key": "AI_OV_S021",
            "value": "-89"
          },
          {
            "key": "AI_OV_S022",
            "value": "-89"
          }
        ]
      },
      "addressVerification": {
        "characteristics": [
          {
            "key": "verificationConfirmation",
            "value": "Y",
            "text": "confirmed"
          },
          {
            "key": "addressValid",
            "value": "Unable to calculate",
            "text": "N/A"
          },
          {
            "key": "postalIdentifierVerification",
            "value": "Y",
            "text": "confirmed"
          }
        ],
        "additionalOutputs": [
          {
            "key": "AV_PI_S001",
            "value": "1"
          },
          {
            "key": "AV_PI_S002.1",
            "value": "Y"
          }
        ]
      },
      "addressAffiliation": {
        "characteristics": [
          {
            "key": "dob",
            "value": "Unable to calculate",
            "text": "N/A"
          },
          {
            "key": "addressAffiliation",
            "value": "Unable to calculate",
            "text": "N/A"
          },
          {
            "key": "familyName",
            "value": "Unable to calculate",
            "text": "N/A"
          },
          {
            "key": "fullName",
            "value": "Unable to calculate",
            "text": "N/A"
          },
          {
            "key": "governmentId",
            "value": "Unable to calculate",
            "text": "N/A"
          }
        ],
        "additionalOutputs": [
          {
            "key": "AA_LN005_DS53",
            "value": "-99"
          },
          {
            "key": "AA_FN011_DS50",
            "value": "1"
          },
          {
            "key": "AA_FN011_DS51",
            "value": "1"
          },
          {
            "key": "AA_FN011_DS52",
            "value": "-99"
          },
          {
            "key": "AA_FN012_DS50",
            "value": "0"
          },
          {
            "key": "AA_FN012_DS51",
            "value": "0"
          },
          {
            "key": "AA_FN012_DS52",
            "value": "-99"
          },
          {
            "key": "AA_FN013_DS50",
            "value": "-89"
          },
          {
            "key": "AA_FN013_DS51",
            "value": "-89"
          },
          {
            "key": "AA_FN013_DS52",
            "value": "-99"
          },
          {
            "key": "AA_BD009_DS50",
            "value": "1"
          },
          {
            "key": "AA_BD009_DS51",
            "value": "1"
          },
          {
            "key": "AA_BD010_DS50",
            "value": "-89"
          },
          {
            "key": "AA_BD010_DS51",
            "value": "-89"
          },
          {
            "key": "AA_PN005_DS53",
            "value": "-99"
          }
        ]
      }
    },
    {
      "deceased": {
        "characteristics": [
          {
            "key": "deceased",
            "value": "N",
            "text": "No"
          }
        ]
      }
    },
    {
      "authenticationId": "77f291e5-eecd-403a-ab09-361d7cdda57e",
      "kbaAuthentication": {
        "characteristics": [
          {
            "key": "decision",
            "value": "pass",
            "text": "N/A"
          },
          {
            "key": "simpleScore",
            "value": "100",
            "text": "N/A"
          },
          {
            "key": "numberRealQuestionsNotAnswered",
            "value": "0",
            "text": "N/A"
          },
          {
            "key": "numberQuestionsGenerated",
            "value": "29",
            "text": "N/A"
          },
          {
            "key": "numberRealQuestionsPresented",
            "value": "3",
            "text": "N/A"
          },
          {
            "key": "numberRealQuestionsAnsweredCorrectly",
            "value": "3",
            "text": "N/A"
          },
          {
            "key": "numberFictionalQuestionsGenerated",
            "value": "0",
            "text": "N/A"
          },
          {
            "key": "numberFictionalQuestionsAnsweredCorrectly",
            "value": "0",
            "text": "N/A"
          },
          {
            "key": "numberRealQuestionsAnsweredIncorrectly",
            "value": "0",
            "text": "N/A"
          },
          {
            "key": "numberFictionalQuestionsAnsweredIncorrectly",
            "value": "0",
            "text": "N/A"
          },
          {
            "key": "numberQuestionsPresented",
            "value": "3",
            "text": "N/A"
          },
          {
            "key": "numberFictionalQuestionsPresented",
            "value": "0",
            "text": "N/A"
          },
          {
            "key": "numberFictionalQuestionsNotAnswered",
            "value": "0",
            "text": "N/A"
          },
          {
            "key": "numberRealQuestionsGenerated",
            "value": "29",
            "text": "N/A"
          },
          {
            "key": "allQuestionsPresentedWereReal",
            "value": "y",
            "text": "Yes"
          },
          {
            "key": "allQuestionsPresentedWereFictional",
            "value": "n",
            "text": "No"
          },
          {
            "key": "timeTakenAnswerQuestionnaireSession1",
            "value": "90",
            "text": "seconds"
          }
        ]
      }
    }
  ],
  "data": {
    "identity": {
      "name": {
        "firstName": "anita",
        "middleName": null,
        "lastName": "parker",
        "secondLastName": null,
        "namePrefix": null,
        "nameSuffix": null
      },
      "address": [
        {
          "addressType": "current",
          "countryCode": "UK",
          "addressLine1": "346",
          "addressLine2": "",
          "city": "",
          "county": "",
          "region": "",
          "postalCode": "cb62ag",
          "postalIdentifier": "",
          "isPrimary": "true"
        }
      ],
      "dateOfBirth": {
        "day": "15",
        "month": "02",
        "year": "1960"
      },
      "countryOfResidence": "",
      "phone": null
    },
    "kba": null,
    "ipAddress": null,
    "device": null,
    "additionalFields": null
  },
  "outputAddress": [
    {
      "addressType": "current",
      "addressLine1": "346",
      "addressLine2": "IDVERIFIER ST",
      "city": "ELY",
      "county": "CAMBS",
      "postalCode": "CB6 2AG",
      "postalIdentifier": "28030098354"
    }
  ],
  "assessment": [
    {
      "key": "decision",
      "value": "PASS"
    }
  ],
  "originalTransactionId": "43a34740-f543-457a-b48b-c3e831282997"
}